{
  "SimpleSocial": {
    "TABLE": "SimpleSocialTable",
    "INDEX_GSI1" : "GSI1",
    "REGION": "us-west-2",
    "AWSENV": "AWS_SAM_LOCAL",
    "DEVENV" : "Linux",
    "DOCKER_NETWORK_NAME" : "dynamo"
  }
}